<?xml version="1.0" encoding="utf-8"?>
<!-- Generator: Adobe Illustrator 16.0.0, SVG Export Plug-In . SVG Version: 6.00 Build 0)  -->
<!DOCTYPE svg PUBLIC "-//W3C//DTD SVG 1.1//EN" "http://www.w3.org/Graphics/SVG/1.1/DTD/svg11.dtd">
<svg version="1.1" id="Layer_1" xmlns="http://www.w3.org/2000/svg" xmlns:xlink="http://www.w3.org/1999/xlink" x="0px" y="0px"
	 width="312.762px" height="276.478px" viewBox="0 0 312.762 276.478" enable-background="new 0 0 312.762 276.478"
	 xml:space="preserve">
<g>
	<path fill-rule="evenodd" clip-rule="evenodd" d="M312.762,134.371c-22.947-39.66-45.885-79.327-68.834-118.987
		c-0.836-1.448-1.773-2.84-3.043-4.863c-4.227,7.273-8.113,13.965-11.973,20.604c18.5,32.036,36.746,63.631,55.488,96.087
		c-12.088,0-23.168,0-34.41,0c0,7.03,0,13.493,0,20.608c11.502,0,22.73,0,34.996,0c-19.656,34.045-38.766,67.143-57.863,100.221
		c3.939,7.107,7.676,13.844,11.703,21.113c1.227-1.934,2.025-3.098,2.73-4.314c12.229-21.146,24.418-42.313,36.672-63.443
		c12.168-20.98,24.4-41.924,36.605-62.883c0-0.32,0-0.641,0-0.961C314.141,136.493,313.395,135.465,312.762,134.371z"/>
	<path fill-rule="evenodd" clip-rule="evenodd" d="M96.521,255.556c7.094-12.066,13.828-23.518,20.674-35.162
		c-5.998-3.734-11.494-7.156-17.256-10.746c-6.855,11.469-13.445,22.5-20.412,34.156c-18.791-32.49-37.146-64.229-55.412-95.809
		c-8.031,0-15.52,0-24.115,0c25.107,43.451,49.76,86.113,74.244,128.482c48.479,0,96.395,0,145.102,0
		c-3.984-7.289-7.684-14.057-11.438-20.922C170.752,255.556,134.041,255.556,96.521,255.556z"/>
	<path fill-rule="evenodd" clip-rule="evenodd" d="M0.709,126.84c8.531,0,16.271,0,24.121,0
		c18.684-32.314,37.295-64.503,56.207-97.21c5.516,9.604,10.715,18.654,16.063,27.964c5.945-4.217,11.23-7.965,16.707-11.847
		c-4.85-8.533-9.398-16.54-14.469-25.461c37.912,0,74.826,0,112.059,0c4.016-6.834,7.977-13.579,12.215-20.793
		c-50.42,0-99.82,0-149.328,0C49.83,41.814,25.418,84.071,0.709,126.84z"/>
	<path fill-rule="evenodd" clip-rule="evenodd" d="M145.941,171.911c4.955-8.305,9.662-16.197,14.477-24.268
		c10.965,0,21.637,0,32.592,0c0-7.037,0-13.634,0-20.557c-11.055,0-21.734,0-32.617,0c-6.16-10.759-12.234-21.363-18.443-32.206
		c-5.869,4.174-11.166,7.939-16.709,11.883c5.904,10.365,11.576,20.323,17.406,30.558c-4.807,8.146-9.332,15.816-14.018,23.758
		C134.51,164.759,140.014,168.2,145.941,171.911z"/>
</g>
</svg>
